{
  "query": "'pizza'",
  "total": 500,
  "first_page": "/foods?query='pizza'",
  "next_page": "/foods?query='pizza'&start=25",
  "items": [
    {
      "id": "urn:uuid:2bf7a26c-4a9b-492e-8583-e4100a541034",
      "description": "pizza, cheese, cooked, from frozen, 15.1 oz",
      "category": "Frozen Entrees",
      "quantity": 1,
      "product": "USDA",
      "supplier": "USDA SR-28",
      "unit": "urn:uuid:3340624b-f24d-4997-9ca6-11221b22008e",
      "characteristics": ["Vegetarian/Lactovo"],
      "groups": [
        "Dishes & Prepared Foods",
        "Frozen Foods",
        "Ethnic Foods",
        "Italian",
        "Dairy Products & Subs"
      ],
      "units": [
        "urn:uuid:3340624b-f24d-4997-9ca6-11221b22008e",
        "urn:uuid:9eda6d41-4fbb-4a97-b046-46aee8a086de",
        "urn:uuid:e1d79375-15db-4ed7-8ead-f64dc2319091",
        "urn:uuid:e0ad190a-d48b-443e-b637-e1cf05db2cdb",
        "urn:uuid:3e8384f0-ea47-4fde-b7e1-a12747b28a30",
        "urn:uuid:d3be684c-ebfa-4861-924f-8840600d1e84",
        "urn:uuid:198149f8-4499-487b-9761-2028cdae404f",
        "urn:uuid:0e5f4dd2-3353-477f-9773-0ed116c93e2e"
      ]
    },
    {
      "id": "urn:uuid:feef059d-3f7d-4583-a90b-2b1f8658bfd4",
      "description": "pizza, pan, pepperoni, personal",
      "category": "Pizza Hut",
      "quantity": 1,
      "product": "Pizza Hut",
      "supplier": "Pizza Hut",
      "unit": "urn:uuid:3340624b-f24d-4997-9ca6-11221b22008e",
      "groups": ["Meat", "Dishes & Prepared Foods", "Dairy Products & Subs"],
      "units": [
        "urn:uuid:3340624b-f24d-4997-9ca6-11221b22008e",
        "urn:uuid:9eda6d41-4fbb-4a97-b046-46aee8a086de",
        "urn:uuid:e1d79375-15db-4ed7-8ead-f64dc2319091",
        "urn:uuid:e0ad190a-d48b-443e-b637-e1cf05db2cdb",
        "urn:uuid:3e8384f0-ea47-4fde-b7e1-a12747b28a30",
        "urn:uuid:d3be684c-ebfa-4861-924f-8840600d1e84",
        "urn:uuid:0e5f4dd2-3353-477f-9773-0ed116c93e2e"
      ]
    },
    {
      "id": "urn:uuid:0a36ca90-5dcd-4901-a4e6-fb61cce02ffe",
      "description": "pizza, pan, cheese, personal",
      "category": "Pizza Hut",
      "quantity": 1,
      "product": "Pizza Hut",
      "supplier": "Pizza Hut",
      "unit": "urn:uuid:3340624b-f24d-4997-9ca6-11221b22008e",
      "characteristics": ["Vegetarian/Lactovo"],
      "groups": ["Dishes & Prepared Foods", "Dairy Products & Subs"],
      "units": [
        "urn:uuid:3340624b-f24d-4997-9ca6-11221b22008e",
        "urn:uuid:9eda6d41-4fbb-4a97-b046-46aee8a086de",
        "urn:uuid:e1d79375-15db-4ed7-8ead-f64dc2319091",
        "urn:uuid:e0ad190a-d48b-443e-b637-e1cf05db2cdb",
        "urn:uuid:3e8384f0-ea47-4fde-b7e1-a12747b28a30",
        "urn:uuid:d3be684c-ebfa-4861-924f-8840600d1e84",
        "urn:uuid:0e5f4dd2-3353-477f-9773-0ed116c93e2e"
      ]
    },
    {
      "id": "urn:uuid:0c701f0a-8005-461c-984c-9a20678ed59a",
      "description": "pizza, pan, Meat Lover's, personal",
      "category": "Pizza Hut",
      "quantity": 1,
      "product": "Pizza Hut",
      "supplier": "Pizza Hut",
      "unit": "urn:uuid:3340624b-f24d-4997-9ca6-11221b22008e",
      "groups": ["Meat", "Dishes & Prepared Foods", "Dairy Products & Subs"],
      "units": [
        "urn:uuid:3340624b-f24d-4997-9ca6-11221b22008e",
        "urn:uuid:9eda6d41-4fbb-4a97-b046-46aee8a086de",
        "urn:uuid:e1d79375-15db-4ed7-8ead-f64dc2319091",
        "urn:uuid:e0ad190a-d48b-443e-b637-e1cf05db2cdb",
        "urn:uuid:3e8384f0-ea47-4fde-b7e1-a12747b28a30",
        "urn:uuid:d3be684c-ebfa-4861-924f-8840600d1e84",
        "urn:uuid:0e5f4dd2-3353-477f-9773-0ed116c93e2e"
      ]
    },
    {
      "id": "urn:uuid:ea829122-4763-4c4b-9646-5393733a2d81",
      "description": "pizza, pan, Veggie Lover's, personal",
      "category": "Pizza Hut",
      "quantity": 1,
      "product": "Pizza Hut",
      "supplier": "Pizza Hut",
      "unit": "urn:uuid:3340624b-f24d-4997-9ca6-11221b22008e",
      "characteristics": ["Vegetarian/Lactovo"],
      "groups": [
        "Dishes & Prepared Foods",
        "Vegetables",
        "Dairy Products & Subs"
      ],
      "units": [
        "urn:uuid:3340624b-f24d-4997-9ca6-11221b22008e",
        "urn:uuid:9eda6d41-4fbb-4a97-b046-46aee8a086de",
        "urn:uuid:e1d79375-15db-4ed7-8ead-f64dc2319091",
        "urn:uuid:e0ad190a-d48b-443e-b637-e1cf05db2cdb",
        "urn:uuid:3e8384f0-ea47-4fde-b7e1-a12747b28a30",
        "urn:uuid:d3be684c-ebfa-4861-924f-8840600d1e84",
        "urn:uuid:0e5f4dd2-3353-477f-9773-0ed116c93e2e"
      ]
    },
    {
      "id": "urn:uuid:d429277f-62f2-4aba-ab64-3913211c8205",
      "description": "pizza, supreme original, frozen",
      "category": "Frozen Entrees",
      "quantity": 1,
      "product": "Tombstone",
      "supplier": "Nestle",
      "unit": "urn:uuid:3340624b-f24d-4997-9ca6-11221b22008e",
      "groups": [
        "Meat",
        "Dishes & Prepared Foods",
        "Frozen Foods",
        "Ethnic Foods",
        "Italian",
        "Dairy Products & Subs"
      ],
      "units": [
        "urn:uuid:3340624b-f24d-4997-9ca6-11221b22008e",
        "urn:uuid:9eda6d41-4fbb-4a97-b046-46aee8a086de",
        "urn:uuid:e1d79375-15db-4ed7-8ead-f64dc2319091",
        "urn:uuid:e0ad190a-d48b-443e-b637-e1cf05db2cdb",
        "urn:uuid:3e8384f0-ea47-4fde-b7e1-a12747b28a30",
        "urn:uuid:d3be684c-ebfa-4861-924f-8840600d1e84",
        "urn:uuid:0e5f4dd2-3353-477f-9773-0ed116c93e2e",
        "urn:uuid:198149f8-4499-487b-9761-2028cdae404f"
      ]
    },
    {
      "id": "urn:uuid:71fcbb7a-3191-4438-bc30-8c9d1006dc31",
      "description": "pizza, rising crust, pepperoni, frozen",
      "category": "Frozen Entrees",
      "quantity": 1,
      "product": "DiGiorno",
      "supplier": "Nestle",
      "unit": "urn:uuid:3340624b-f24d-4997-9ca6-11221b22008e",
      "groups": [
        "Meat",
        "Dishes & Prepared Foods",
        "Frozen Foods",
        "Ethnic Foods",
        "Italian",
        "Dairy Products & Subs"
      ],
      "units": [
        "urn:uuid:3340624b-f24d-4997-9ca6-11221b22008e",
        "urn:uuid:9eda6d41-4fbb-4a97-b046-46aee8a086de",
        "urn:uuid:e1d79375-15db-4ed7-8ead-f64dc2319091",
        "urn:uuid:e0ad190a-d48b-443e-b637-e1cf05db2cdb",
        "urn:uuid:3e8384f0-ea47-4fde-b7e1-a12747b28a30",
        "urn:uuid:d3be684c-ebfa-4861-924f-8840600d1e84",
        "urn:uuid:198149f8-4499-487b-9761-2028cdae404f",
        "urn:uuid:0e5f4dd2-3353-477f-9773-0ed116c93e2e"
      ]
    },
    {
      "id": "urn:uuid:dfa97230-ffd6-4d77-a44e-9f67213bcfc2",
      "description": "pizza, thin crust, pepperoni, frozen, brick oven style",
      "category": "Frozen Entrees",
      "quantity": 0.25,
      "product": "Tombstone",
      "supplier": "Nestle",
      "unit": "urn:uuid:85562e85-ba37-4e4a-8400-da43170204a7",
      "groups": [
        "Meat",
        "Dishes & Prepared Foods",
        "Frozen Foods",
        "Ethnic Foods",
        "Italian",
        "Dairy Products & Subs"
      ],
      "units": [
        "urn:uuid:85562e85-ba37-4e4a-8400-da43170204a7",
        "urn:uuid:9eda6d41-4fbb-4a97-b046-46aee8a086de",
        "urn:uuid:e1d79375-15db-4ed7-8ead-f64dc2319091",
        "urn:uuid:e0ad190a-d48b-443e-b637-e1cf05db2cdb",
        "urn:uuid:3e8384f0-ea47-4fde-b7e1-a12747b28a30",
        "urn:uuid:d3be684c-ebfa-4861-924f-8840600d1e84",
        "urn:uuid:0e5f4dd2-3353-477f-9773-0ed116c93e2e",
        "urn:uuid:3340624b-f24d-4997-9ca6-11221b22008e"
      ]
    },
    {
      "id": "urn:uuid:73e4ac2d-58b5-4fd5-8df0-adc83b35ea12",
      "description": "pizza, french bread, pepperoni, frozen",
      "category": "Frozen Entrees",
      "quantity": 1,
      "product": "Lean Cuisine",
      "supplier": "Nestle",
      "unit": "urn:uuid:1eab77c8-fc3e-4bbc-a796-3351dabb8fd6",
      "groups": [
        "Meat",
        "Dishes & Prepared Foods",
        "Frozen Foods",
        "Dairy Products & Subs"
      ],
      "units": [
        "urn:uuid:1eab77c8-fc3e-4bbc-a796-3351dabb8fd6",
        "urn:uuid:9eda6d41-4fbb-4a97-b046-46aee8a086de",
        "urn:uuid:e1d79375-15db-4ed7-8ead-f64dc2319091",
        "urn:uuid:e0ad190a-d48b-443e-b637-e1cf05db2cdb",
        "urn:uuid:3e8384f0-ea47-4fde-b7e1-a12747b28a30",
        "urn:uuid:d3be684c-ebfa-4861-924f-8840600d1e84",
        "urn:uuid:0e5f4dd2-3353-477f-9773-0ed116c93e2e"
      ]
    },
    {
      "id": "urn:uuid:1b84c8e4-d04a-4232-a892-0bde269a285a",
      "description": "pizza, thin crust, pepperoni & sausage, frozen, brick oven style",
      "category": "Frozen Entrees",
      "quantity": 0.25,
      "product": "Tombstone",
      "supplier": "Nestle",
      "unit": "urn:uuid:85562e85-ba37-4e4a-8400-da43170204a7",
      "groups": [
        "Meat",
        "Dishes & Prepared Foods",
        "Frozen Foods",
        "Ethnic Foods",
        "Italian",
        "Dairy Products & Subs"
      ],
      "units": [
        "urn:uuid:85562e85-ba37-4e4a-8400-da43170204a7",
        "urn:uuid:9eda6d41-4fbb-4a97-b046-46aee8a086de",
        "urn:uuid:e1d79375-15db-4ed7-8ead-f64dc2319091",
        "urn:uuid:e0ad190a-d48b-443e-b637-e1cf05db2cdb",
        "urn:uuid:3e8384f0-ea47-4fde-b7e1-a12747b28a30",
        "urn:uuid:d3be684c-ebfa-4861-924f-8840600d1e84",
        "urn:uuid:0e5f4dd2-3353-477f-9773-0ed116c93e2e",
        "urn:uuid:3340624b-f24d-4997-9ca6-11221b22008e"
      ]
    },
    {
      "id": "urn:uuid:765ccdc6-4350-49e0-8ebe-e759c4303706",
      "description": "pizza, crispy thin crust, bbq recipe chicken, frozen",
      "category": "Frozen Entrees",
      "quantity": 0.33,
      "product": "California Pizza Kitchen",
      "supplier": "Kraft",
      "unit": "urn:uuid:198149f8-4499-487b-9761-2028cdae404f",
      "groups": [
        "Dishes & Prepared Foods",
        "Frozen Foods",
        "Poultry",
        "Dairy Products & Subs"
      ],
      "units": [
        "urn:uuid:198149f8-4499-487b-9761-2028cdae404f",
        "urn:uuid:9eda6d41-4fbb-4a97-b046-46aee8a086de",
        "urn:uuid:e1d79375-15db-4ed7-8ead-f64dc2319091",
        "urn:uuid:e0ad190a-d48b-443e-b637-e1cf05db2cdb",
        "urn:uuid:3e8384f0-ea47-4fde-b7e1-a12747b28a30",
        "urn:uuid:d3be684c-ebfa-4861-924f-8840600d1e84",
        "urn:uuid:0e5f4dd2-3353-477f-9773-0ed116c93e2e"
      ]
    },
    {
      "id": "urn:uuid:31603f9c-182b-4388-8c3e-59e565c48bfd",
      "description": "pizza, mexican",
      "category": "Taco Bell",
      "quantity": 1,
      "product": "Taco Bell",
      "supplier": "Taco Bell",
      "unit": "urn:uuid:85562e85-ba37-4e4a-8400-da43170204a7",
      "groups": ["Meat", "Legumes", "Dishes & Prepared Foods"],
      "units": [
        "urn:uuid:85562e85-ba37-4e4a-8400-da43170204a7",
        "urn:uuid:9eda6d41-4fbb-4a97-b046-46aee8a086de",
        "urn:uuid:e1d79375-15db-4ed7-8ead-f64dc2319091",
        "urn:uuid:e0ad190a-d48b-443e-b637-e1cf05db2cdb",
        "urn:uuid:3e8384f0-ea47-4fde-b7e1-a12747b28a30",
        "urn:uuid:d3be684c-ebfa-4861-924f-8840600d1e84",
        "urn:uuid:0e5f4dd2-3353-477f-9773-0ed116c93e2e"
      ]
    },
    {
      "id": "urn:uuid:c4a0dd44-3a46-402c-8f13-2bc58533edb2",
      "description": "pizza roll, triple meat, frozen",
      "category": "Frozen Sides",
      "quantity": 6,
      "product": "Totino's",
      "supplier": "General Mills",
      "unit": "urn:uuid:85562e85-ba37-4e4a-8400-da43170204a7",
      "groups": [
        "Meat",
        "Dishes & Prepared Foods",
        "Frozen Foods",
        "Dairy Products & Subs"
      ],
      "units": [
        "urn:uuid:85562e85-ba37-4e4a-8400-da43170204a7",
        "urn:uuid:9eda6d41-4fbb-4a97-b046-46aee8a086de",
        "urn:uuid:e1d79375-15db-4ed7-8ead-f64dc2319091",
        "urn:uuid:e0ad190a-d48b-443e-b637-e1cf05db2cdb",
        "urn:uuid:3e8384f0-ea47-4fde-b7e1-a12747b28a30",
        "urn:uuid:d3be684c-ebfa-4861-924f-8840600d1e84",
        "urn:uuid:0e5f4dd2-3353-477f-9773-0ed116c93e2e"
      ]
    },
    {
      "id": "urn:uuid:59c411c4-7f5c-4ff1-b012-78b08497bfdf",
      "description": "pizza, thin 'n crispy, pepperoni, medium",
      "category": "Pizza Hut",
      "quantity": 1,
      "product": "Pizza Hut",
      "supplier": "Pizza Hut",
      "unit": "urn:uuid:3340624b-f24d-4997-9ca6-11221b22008e",
      "groups": ["Meat", "Dishes & Prepared Foods", "Dairy Products & Subs"],
      "units": [
        "urn:uuid:3340624b-f24d-4997-9ca6-11221b22008e",
        "urn:uuid:9eda6d41-4fbb-4a97-b046-46aee8a086de",
        "urn:uuid:e1d79375-15db-4ed7-8ead-f64dc2319091",
        "urn:uuid:e0ad190a-d48b-443e-b637-e1cf05db2cdb",
        "urn:uuid:3e8384f0-ea47-4fde-b7e1-a12747b28a30",
        "urn:uuid:d3be684c-ebfa-4861-924f-8840600d1e84",
        "urn:uuid:0e5f4dd2-3353-477f-9773-0ed116c93e2e"
      ]
    },
    {
      "id": "urn:uuid:7088f4a3-6a56-406a-bee6-8cfa7d3b2e07",
      "description": "pizza, pan, supreme, personal",
      "category": "Pizza Hut",
      "quantity": 1,
      "product": "Pizza Hut",
      "supplier": "Pizza Hut",
      "unit": "urn:uuid:3340624b-f24d-4997-9ca6-11221b22008e",
      "groups": [
        "Meat",
        "Dishes & Prepared Foods",
        "Vegetables",
        "Dairy Products & Subs"
      ],
      "units": [
        "urn:uuid:3340624b-f24d-4997-9ca6-11221b22008e",
        "urn:uuid:9eda6d41-4fbb-4a97-b046-46aee8a086de",
        "urn:uuid:e1d79375-15db-4ed7-8ead-f64dc2319091",
        "urn:uuid:e0ad190a-d48b-443e-b637-e1cf05db2cdb",
        "urn:uuid:3e8384f0-ea47-4fde-b7e1-a12747b28a30",
        "urn:uuid:d3be684c-ebfa-4861-924f-8840600d1e84",
        "urn:uuid:0e5f4dd2-3353-477f-9773-0ed116c93e2e"
      ]
    },
    {
      "id": "urn:uuid:29302a3c-68ec-47b9-8532-ec18a3bab672",
      "description": "pizza roll, combination, frozen",
      "category": "Frozen Sides",
      "quantity": 6,
      "product": "Totino's",
      "supplier": "General Mills",
      "unit": "urn:uuid:85562e85-ba37-4e4a-8400-da43170204a7",
      "groups": [
        "Meat",
        "Dishes & Prepared Foods",
        "Frozen Foods",
        "Dairy Products & Subs"
      ],
      "units": [
        "urn:uuid:85562e85-ba37-4e4a-8400-da43170204a7",
        "urn:uuid:9eda6d41-4fbb-4a97-b046-46aee8a086de",
        "urn:uuid:e1d79375-15db-4ed7-8ead-f64dc2319091",
        "urn:uuid:e0ad190a-d48b-443e-b637-e1cf05db2cdb",
        "urn:uuid:3e8384f0-ea47-4fde-b7e1-a12747b28a30",
        "urn:uuid:d3be684c-ebfa-4861-924f-8840600d1e84",
        "urn:uuid:0e5f4dd2-3353-477f-9773-0ed116c93e2e"
      ]
    },
    {
      "id": "urn:uuid:06e2eb9a-68a3-43ec-b6a8-c881fe7d2865",
      "description": "pizza, pan, Veggie Lover's, medium",
      "category": "Pizza Hut",
      "quantity": 1,
      "product": "Pizza Hut",
      "supplier": "Pizza Hut",
      "unit": "urn:uuid:3340624b-f24d-4997-9ca6-11221b22008e",
      "characteristics": ["Vegetarian/Lactovo"],
      "groups": [
        "Dishes & Prepared Foods",
        "Vegetables",
        "Dairy Products & Subs"
      ],
      "units": [
        "urn:uuid:3340624b-f24d-4997-9ca6-11221b22008e",
        "urn:uuid:9eda6d41-4fbb-4a97-b046-46aee8a086de",
        "urn:uuid:e1d79375-15db-4ed7-8ead-f64dc2319091",
        "urn:uuid:e0ad190a-d48b-443e-b637-e1cf05db2cdb",
        "urn:uuid:3e8384f0-ea47-4fde-b7e1-a12747b28a30",
        "urn:uuid:d3be684c-ebfa-4861-924f-8840600d1e84",
        "urn:uuid:0e5f4dd2-3353-477f-9773-0ed116c93e2e"
      ]
    },
    {
      "id": "urn:uuid:ee095fff-7dcd-4f03-8184-04f274d09bb3",
      "description": "pizza, pan, Meat Lover's, medium",
      "category": "Pizza Hut",
      "quantity": 1,
      "product": "Pizza Hut",
      "supplier": "Pizza Hut",
      "unit": "urn:uuid:3340624b-f24d-4997-9ca6-11221b22008e",
      "groups": ["Meat", "Dishes & Prepared Foods", "Dairy Products & Subs"],
      "units": [
        "urn:uuid:3340624b-f24d-4997-9ca6-11221b22008e",
        "urn:uuid:9eda6d41-4fbb-4a97-b046-46aee8a086de",
        "urn:uuid:e1d79375-15db-4ed7-8ead-f64dc2319091",
        "urn:uuid:e0ad190a-d48b-443e-b637-e1cf05db2cdb",
        "urn:uuid:3e8384f0-ea47-4fde-b7e1-a12747b28a30",
        "urn:uuid:d3be684c-ebfa-4861-924f-8840600d1e84",
        "urn:uuid:0e5f4dd2-3353-477f-9773-0ed116c93e2e"
      ]
    },
    {
      "id": "urn:uuid:6ad49b1b-580a-4d77-8aab-7af385df0185",
      "description": "pizza, rising crust, four cheese, frozen",
      "category": "Frozen Entrees",
      "quantity": 1,
      "product": "DiGiorno",
      "supplier": "Nestle",
      "unit": "urn:uuid:3340624b-f24d-4997-9ca6-11221b22008e",
      "characteristics": ["Vegetarian/Lactovo"],
      "groups": [
        "Dishes & Prepared Foods",
        "Frozen Foods",
        "Ethnic Foods",
        "Italian",
        "Dairy Products & Subs"
      ],
      "units": [
        "urn:uuid:3340624b-f24d-4997-9ca6-11221b22008e",
        "urn:uuid:9eda6d41-4fbb-4a97-b046-46aee8a086de",
        "urn:uuid:e1d79375-15db-4ed7-8ead-f64dc2319091",
        "urn:uuid:e0ad190a-d48b-443e-b637-e1cf05db2cdb",
        "urn:uuid:3e8384f0-ea47-4fde-b7e1-a12747b28a30",
        "urn:uuid:d3be684c-ebfa-4861-924f-8840600d1e84",
        "urn:uuid:198149f8-4499-487b-9761-2028cdae404f",
        "urn:uuid:0e5f4dd2-3353-477f-9773-0ed116c93e2e"
      ]
    },
    {
      "id": "urn:uuid:bcd20f0c-3f78-4fef-a91c-602c5999242f",
      "description": "pizza, pan, supreme, medium",
      "category": "Pizza Hut",
      "quantity": 1,
      "product": "Pizza Hut",
      "supplier": "Pizza Hut",
      "unit": "urn:uuid:3340624b-f24d-4997-9ca6-11221b22008e",
      "groups": [
        "Meat",
        "Dishes & Prepared Foods",
        "Vegetables",
        "Dairy Products & Subs"
      ],
      "units": [
        "urn:uuid:3340624b-f24d-4997-9ca6-11221b22008e",
        "urn:uuid:9eda6d41-4fbb-4a97-b046-46aee8a086de",
        "urn:uuid:e1d79375-15db-4ed7-8ead-f64dc2319091",
        "urn:uuid:e0ad190a-d48b-443e-b637-e1cf05db2cdb",
        "urn:uuid:3e8384f0-ea47-4fde-b7e1-a12747b28a30",
        "urn:uuid:d3be684c-ebfa-4861-924f-8840600d1e84",
        "urn:uuid:0e5f4dd2-3353-477f-9773-0ed116c93e2e"
      ]
    },
    {
      "id": "urn:uuid:f282428f-1722-40a9-8ef0-4e492f6a291c",
      "description": "pizza, pan, supreme, large",
      "category": "Pizza Hut",
      "quantity": 1,
      "product": "Pizza Hut",
      "supplier": "Pizza Hut",
      "unit": "urn:uuid:3340624b-f24d-4997-9ca6-11221b22008e",
      "groups": [
        "Meat",
        "Dishes & Prepared Foods",
        "Vegetables",
        "Dairy Products & Subs"
      ],
      "units": [
        "urn:uuid:3340624b-f24d-4997-9ca6-11221b22008e",
        "urn:uuid:9eda6d41-4fbb-4a97-b046-46aee8a086de",
        "urn:uuid:e1d79375-15db-4ed7-8ead-f64dc2319091",
        "urn:uuid:e0ad190a-d48b-443e-b637-e1cf05db2cdb",
        "urn:uuid:3e8384f0-ea47-4fde-b7e1-a12747b28a30",
        "urn:uuid:d3be684c-ebfa-4861-924f-8840600d1e84",
        "urn:uuid:0e5f4dd2-3353-477f-9773-0ed116c93e2e"
      ]
    },
    {
      "id": "urn:uuid:f85ba1ee-5a46-4df6-9b76-dab87edecf34",
      "description": "pizza, four cheese, Pizza for One, frozen",
      "category": "Frozen Entrees",
      "quantity": 1,
      "product": "Celeste",
      "supplier": "Pinnacle Foods Group",
      "unit": "urn:uuid:7a5f5a69-72de-4cb2-a03e-3c6509334a50",
      "characteristics": ["Vegetarian/Lactovo"],
      "groups": [
        "Dishes & Prepared Foods",
        "Frozen Foods",
        "Ethnic Foods",
        "Italian",
        "Dairy Products & Subs"
      ],
      "units": [
        "urn:uuid:7a5f5a69-72de-4cb2-a03e-3c6509334a50",
        "urn:uuid:9eda6d41-4fbb-4a97-b046-46aee8a086de",
        "urn:uuid:e1d79375-15db-4ed7-8ead-f64dc2319091",
        "urn:uuid:e0ad190a-d48b-443e-b637-e1cf05db2cdb",
        "urn:uuid:3e8384f0-ea47-4fde-b7e1-a12747b28a30",
        "urn:uuid:d3be684c-ebfa-4861-924f-8840600d1e84",
        "urn:uuid:0e5f4dd2-3353-477f-9773-0ed116c93e2e"
      ]
    },
    {
      "id": "urn:uuid:9b4ece59-44c3-435d-8e97-e53ead96d6fc",
      "description": "pizza, five cheese original, frozen",
      "category": "Frozen Entrees",
      "quantity": 0.25,
      "product": "Tombstone",
      "supplier": "Nestle",
      "unit": "urn:uuid:85562e85-ba37-4e4a-8400-da43170204a7",
      "characteristics": ["Vegetarian/Lactovo"],
      "groups": [
        "Dishes & Prepared Foods",
        "Frozen Foods",
        "Ethnic Foods",
        "Italian",
        "Dairy Products & Subs"
      ],
      "units": [
        "urn:uuid:85562e85-ba37-4e4a-8400-da43170204a7",
        "urn:uuid:9eda6d41-4fbb-4a97-b046-46aee8a086de",
        "urn:uuid:e1d79375-15db-4ed7-8ead-f64dc2319091",
        "urn:uuid:e0ad190a-d48b-443e-b637-e1cf05db2cdb",
        "urn:uuid:3e8384f0-ea47-4fde-b7e1-a12747b28a30",
        "urn:uuid:d3be684c-ebfa-4861-924f-8840600d1e84",
        "urn:uuid:0e5f4dd2-3353-477f-9773-0ed116c93e2e",
        "urn:uuid:3340624b-f24d-4997-9ca6-11221b22008e"
      ]
    },
    {
      "id": "urn:uuid:bc77a362-c62b-48a6-8dd5-b13b45d5a693",
      "description": "pizza, thin crust, four cheese, frozen",
      "category": "Frozen Entrees",
      "quantity": 1,
      "product": "DiGiorno",
      "supplier": "Nestle",
      "unit": "urn:uuid:33379b7d-cf8d-4fda-b99d-40372492aafd",
      "characteristics": ["Vegetarian/Lactovo"],
      "groups": [
        "Dishes & Prepared Foods",
        "Frozen Foods",
        "Ethnic Foods",
        "Italian",
        "Dairy Products & Subs"
      ],
      "units": [
        "urn:uuid:33379b7d-cf8d-4fda-b99d-40372492aafd",
        "urn:uuid:9eda6d41-4fbb-4a97-b046-46aee8a086de",
        "urn:uuid:e1d79375-15db-4ed7-8ead-f64dc2319091",
        "urn:uuid:e0ad190a-d48b-443e-b637-e1cf05db2cdb",
        "urn:uuid:3e8384f0-ea47-4fde-b7e1-a12747b28a30",
        "urn:uuid:d3be684c-ebfa-4861-924f-8840600d1e84",
        "urn:uuid:198149f8-4499-487b-9761-2028cdae404f",
        "urn:uuid:0e5f4dd2-3353-477f-9773-0ed116c93e2e"
      ]
    },
    {
      "id": "urn:uuid:bd838dd9-a1f2-448b-9ece-53bffed293df",
      "description": "pizza, rising crust, meat & vegetable, cooked, from frozen, 30.7 oz",
      "category": "Frozen Entrees",
      "quantity": 1,
      "product": "USDA",
      "supplier": "USDA SR-28",
      "unit": "urn:uuid:3340624b-f24d-4997-9ca6-11221b22008e",
      "groups": [
        "Meat",
        "Dishes & Prepared Foods",
        "Ethnic Foods",
        "Italian",
        "Dairy Products & Subs"
      ],
      "units": [
        "urn:uuid:3340624b-f24d-4997-9ca6-11221b22008e",
        "urn:uuid:9eda6d41-4fbb-4a97-b046-46aee8a086de",
        "urn:uuid:e1d79375-15db-4ed7-8ead-f64dc2319091",
        "urn:uuid:e0ad190a-d48b-443e-b637-e1cf05db2cdb",
        "urn:uuid:3e8384f0-ea47-4fde-b7e1-a12747b28a30",
        "urn:uuid:d3be684c-ebfa-4861-924f-8840600d1e84",
        "urn:uuid:198149f8-4499-487b-9761-2028cdae404f",
        "urn:uuid:0e5f4dd2-3353-477f-9773-0ed116c93e2e"
      ]
    }
  ]
}
